Created by PLY version 3.10 (http://www.dabeaz.com/ply)

Unused terminals:

    RPAREN
    LPAREN
    ID

Grammar

Rule 0     S' -> statement
Rule 1     statement -> SELECT select_list FOR NUMBER BY NUMBER WHERE condition
Rule 2     statement -> SELECT select_list FOR NUMBER BY NUMBER
Rule 3     select_list -> select_list select_item
Rule 4     select_list -> select_item
Rule 5     select_list -> TIMES
Rule 6     select_item -> TEMPERATURE
Rule 7     select_item -> BRIGHTNESS
Rule 8     select_item -> HUMIDITY
Rule 9     select_item -> BATTERY
Rule 10    condition -> condition AND condition
Rule 11    condition -> select_item op NUMBER
Rule 12    op -> LESS
Rule 13    op -> GREATER
Rule 14    op -> EQUALS
Rule 15    op -> LESSEQUALS
Rule 16    op -> GREATEREQUALS

Terminals, with rules where they appear

AND                  : 10
BATTERY              : 9
BRIGHTNESS           : 7
BY                   : 1 2
EQUALS               : 14
FOR                  : 1 2
GREATER              : 13
GREATEREQUALS        : 16
HUMIDITY             : 8
ID                   : 
LESS                 : 12
LESSEQUALS           : 15
LPAREN               : 
NUMBER               : 1 1 2 2 11
RPAREN               : 
SELECT               : 1 2
TEMPERATURE          : 6
TIMES                : 5
WHERE                : 1
error                : 

Nonterminals, with rules where they appear

condition            : 1 10 10
op                   : 11
select_item          : 3 4 11
select_list          : 1 2 3
statement            : 0

Parsing method: LALR

state 0

    (0) S' -> . statement
    (1) statement -> . SELECT select_list FOR NUMBER BY NUMBER WHERE condition
    (2) statement -> . SELECT select_list FOR NUMBER BY NUMBER

    SELECT          shift and go to state 2

    statement                      shift and go to state 1

state 1

    (0) S' -> statement .



state 2

    (1) statement -> SELECT . select_list FOR NUMBER BY NUMBER WHERE condition
    (2) statement -> SELECT . select_list FOR NUMBER BY NUMBER
    (3) select_list -> . select_list select_item
    (4) select_list -> . select_item
    (5) select_list -> . TIMES
    (6) select_item -> . TEMPERATURE
    (7) select_item -> . BRIGHTNESS
    (8) select_item -> . HUMIDITY
    (9) select_item -> . BATTERY

    TIMES           shift and go to state 6
    TEMPERATURE     shift and go to state 3
    BRIGHTNESS      shift and go to state 4
    HUMIDITY        shift and go to state 9
    BATTERY         shift and go to state 5

    select_list                    shift and go to state 7
    select_item                    shift and go to state 8

state 3

    (6) select_item -> TEMPERATURE .

    LESS            reduce using rule 6 (select_item -> TEMPERATURE .)
    GREATER         reduce using rule 6 (select_item -> TEMPERATURE .)
    EQUALS          reduce using rule 6 (select_item -> TEMPERATURE .)
    LESSEQUALS      reduce using rule 6 (select_item -> TEMPERATURE .)
    GREATEREQUALS   reduce using rule 6 (select_item -> TEMPERATURE .)
    FOR             reduce using rule 6 (select_item -> TEMPERATURE .)
    TEMPERATURE     reduce using rule 6 (select_item -> TEMPERATURE .)
    BRIGHTNESS      reduce using rule 6 (select_item -> TEMPERATURE .)
    HUMIDITY        reduce using rule 6 (select_item -> TEMPERATURE .)
    BATTERY         reduce using rule 6 (select_item -> TEMPERATURE .)


state 4

    (7) select_item -> BRIGHTNESS .

    LESS            reduce using rule 7 (select_item -> BRIGHTNESS .)
    GREATER         reduce using rule 7 (select_item -> BRIGHTNESS .)
    EQUALS          reduce using rule 7 (select_item -> BRIGHTNESS .)
    LESSEQUALS      reduce using rule 7 (select_item -> BRIGHTNESS .)
    GREATEREQUALS   reduce using rule 7 (select_item -> BRIGHTNESS .)
    FOR             reduce using rule 7 (select_item -> BRIGHTNESS .)
    TEMPERATURE     reduce using rule 7 (select_item -> BRIGHTNESS .)
    BRIGHTNESS      reduce using rule 7 (select_item -> BRIGHTNESS .)
    HUMIDITY        reduce using rule 7 (select_item -> BRIGHTNESS .)
    BATTERY         reduce using rule 7 (select_item -> BRIGHTNESS .)


state 5

    (9) select_item -> BATTERY .

    LESS            reduce using rule 9 (select_item -> BATTERY .)
    GREATER         reduce using rule 9 (select_item -> BATTERY .)
    EQUALS          reduce using rule 9 (select_item -> BATTERY .)
    LESSEQUALS      reduce using rule 9 (select_item -> BATTERY .)
    GREATEREQUALS   reduce using rule 9 (select_item -> BATTERY .)
    FOR             reduce using rule 9 (select_item -> BATTERY .)
    TEMPERATURE     reduce using rule 9 (select_item -> BATTERY .)
    BRIGHTNESS      reduce using rule 9 (select_item -> BATTERY .)
    HUMIDITY        reduce using rule 9 (select_item -> BATTERY .)
    BATTERY         reduce using rule 9 (select_item -> BATTERY .)


state 6

    (5) select_list -> TIMES .

    FOR             reduce using rule 5 (select_list -> TIMES .)
    TEMPERATURE     reduce using rule 5 (select_list -> TIMES .)
    BRIGHTNESS      reduce using rule 5 (select_list -> TIMES .)
    HUMIDITY        reduce using rule 5 (select_list -> TIMES .)
    BATTERY         reduce using rule 5 (select_list -> TIMES .)


state 7

    (1) statement -> SELECT select_list . FOR NUMBER BY NUMBER WHERE condition
    (2) statement -> SELECT select_list . FOR NUMBER BY NUMBER
    (3) select_list -> select_list . select_item
    (6) select_item -> . TEMPERATURE
    (7) select_item -> . BRIGHTNESS
    (8) select_item -> . HUMIDITY
    (9) select_item -> . BATTERY

    FOR             shift and go to state 10
    TEMPERATURE     shift and go to state 3
    BRIGHTNESS      shift and go to state 4
    HUMIDITY        shift and go to state 9
    BATTERY         shift and go to state 5

    select_item                    shift and go to state 11

state 8

    (4) select_list -> select_item .

    FOR             reduce using rule 4 (select_list -> select_item .)
    TEMPERATURE     reduce using rule 4 (select_list -> select_item .)
    BRIGHTNESS      reduce using rule 4 (select_list -> select_item .)
    HUMIDITY        reduce using rule 4 (select_list -> select_item .)
    BATTERY         reduce using rule 4 (select_list -> select_item .)


state 9

    (8) select_item -> HUMIDITY .

    LESS            reduce using rule 8 (select_item -> HUMIDITY .)
    GREATER         reduce using rule 8 (select_item -> HUMIDITY .)
    EQUALS          reduce using rule 8 (select_item -> HUMIDITY .)
    LESSEQUALS      reduce using rule 8 (select_item -> HUMIDITY .)
    GREATEREQUALS   reduce using rule 8 (select_item -> HUMIDITY .)
    FOR             reduce using rule 8 (select_item -> HUMIDITY .)
    TEMPERATURE     reduce using rule 8 (select_item -> HUMIDITY .)
    BRIGHTNESS      reduce using rule 8 (select_item -> HUMIDITY .)
    HUMIDITY        reduce using rule 8 (select_item -> HUMIDITY .)
    BATTERY         reduce using rule 8 (select_item -> HUMIDITY .)


state 10

    (1) statement -> SELECT select_list FOR . NUMBER BY NUMBER WHERE condition
    (2) statement -> SELECT select_list FOR . NUMBER BY NUMBER

    NUMBER          shift and go to state 12


state 11

    (3) select_list -> select_list select_item .

    FOR             reduce using rule 3 (select_list -> select_list select_item .)
    TEMPERATURE     reduce using rule 3 (select_list -> select_list select_item .)
    BRIGHTNESS      reduce using rule 3 (select_list -> select_list select_item .)
    HUMIDITY        reduce using rule 3 (select_list -> select_list select_item .)
    BATTERY         reduce using rule 3 (select_list -> select_list select_item .)


state 12

    (1) statement -> SELECT select_list FOR NUMBER . BY NUMBER WHERE condition
    (2) statement -> SELECT select_list FOR NUMBER . BY NUMBER

    BY              shift and go to state 13


state 13

    (1) statement -> SELECT select_list FOR NUMBER BY . NUMBER WHERE condition
    (2) statement -> SELECT select_list FOR NUMBER BY . NUMBER

    NUMBER          shift and go to state 14


state 14

    (1) statement -> SELECT select_list FOR NUMBER BY NUMBER . WHERE condition
    (2) statement -> SELECT select_list FOR NUMBER BY NUMBER .

    WHERE           shift and go to state 15
    $end            reduce using rule 2 (statement -> SELECT select_list FOR NUMBER BY NUMBER .)


state 15

    (1) statement -> SELECT select_list FOR NUMBER BY NUMBER WHERE . condition
    (10) condition -> . condition AND condition
    (11) condition -> . select_item op NUMBER
    (6) select_item -> . TEMPERATURE
    (7) select_item -> . BRIGHTNESS
    (8) select_item -> . HUMIDITY
    (9) select_item -> . BATTERY

    TEMPERATURE     shift and go to state 3
    BRIGHTNESS      shift and go to state 4
    HUMIDITY        shift and go to state 9
    BATTERY         shift and go to state 5

    select_item                    shift and go to state 17
    condition                      shift and go to state 16

state 16

    (1) statement -> SELECT select_list FOR NUMBER BY NUMBER WHERE condition .
    (10) condition -> condition . AND condition

    $end            reduce using rule 1 (statement -> SELECT select_list FOR NUMBER BY NUMBER WHERE condition .)
    AND             shift and go to state 18


state 17

    (11) condition -> select_item . op NUMBER
    (12) op -> . LESS
    (13) op -> . GREATER
    (14) op -> . EQUALS
    (15) op -> . LESSEQUALS
    (16) op -> . GREATEREQUALS

    LESS            shift and go to state 20
    GREATER         shift and go to state 19
    EQUALS          shift and go to state 22
    LESSEQUALS      shift and go to state 21
    GREATEREQUALS   shift and go to state 23

    op                             shift and go to state 24

state 18

    (10) condition -> condition AND . condition
    (10) condition -> . condition AND condition
    (11) condition -> . select_item op NUMBER
    (6) select_item -> . TEMPERATURE
    (7) select_item -> . BRIGHTNESS
    (8) select_item -> . HUMIDITY
    (9) select_item -> . BATTERY

    TEMPERATURE     shift and go to state 3
    BRIGHTNESS      shift and go to state 4
    HUMIDITY        shift and go to state 9
    BATTERY         shift and go to state 5

    select_item                    shift and go to state 17
    condition                      shift and go to state 25

state 19

    (13) op -> GREATER .

    NUMBER          reduce using rule 13 (op -> GREATER .)


state 20

    (12) op -> LESS .

    NUMBER          reduce using rule 12 (op -> LESS .)


state 21

    (15) op -> LESSEQUALS .

    NUMBER          reduce using rule 15 (op -> LESSEQUALS .)


state 22

    (14) op -> EQUALS .

    NUMBER          reduce using rule 14 (op -> EQUALS .)


state 23

    (16) op -> GREATEREQUALS .

    NUMBER          reduce using rule 16 (op -> GREATEREQUALS .)


state 24

    (11) condition -> select_item op . NUMBER

    NUMBER          shift and go to state 26


state 25

    (10) condition -> condition AND condition .
    (10) condition -> condition . AND condition

  ! shift/reduce conflict for AND resolved as shift
    $end            reduce using rule 10 (condition -> condition AND condition .)
    AND             shift and go to state 18

  ! AND             [ reduce using rule 10 (condition -> condition AND condition .) ]


state 26

    (11) condition -> select_item op NUMBER .

    AND             reduce using rule 11 (condition -> select_item op NUMBER .)
    $end            reduce using rule 11 (condition -> select_item op NUMBER .)

WARNING: 
WARNING: Conflicts:
WARNING: 
WARNING: shift/reduce conflict for AND in state 25 resolved as shift
